[
	{
		"id": 1,
		"name": "FoodMall Android App",
		"link": "https://www.youtube.com/watch?v=GakkflCSgl8&feature=youtu.be&ab_channel=R%C3%AAveRiches",
		"period": "December 2020",
		"type": "Full Stack"
	},
	{
		"id": 2,
		"name": "Dapur Rasha",
		"link": "https://dapurrashaid.web.app/",
		"period": "September 2021",
		"type": "Full Stack"
	},
	{
		"id": 3,
		"name": "Rasha Store",
		"link": "https://rashastore.netlify.app/",
		"period": "December 2021",
		"type": "Full Stack"
	},
	{
		"id": 4,
		"name": "Generasi Cuan",
		"link": "https://generasi-cuan.vercel.app/",
		"period": "January 2021",
		"type": "UI UX Designer"
	},
	{
		"id": 5,
		"name": "Cireundeu Store",
		"link": "https://store.cireundeu.solusi.vip/",
		"period": "June 2021",
		"type": "Full Stack"
	},
	{
		"id": 6,
		"name": "Slip Gaji",
		"link": "https://slipgaji.solusi.vip/",
		"period": "July 2021",
		"type": "Full Stack"
	},
	{
		"id": 7,
		"name": "Kidsworship Android App",
		"link": "https://gitlab.com/muhrayhanns04/kids-worship-frontend",
		"period": "June 2021 - July 2021",
		"type": "Full Stack"
	},
	{
		"id": 8,
		"name": "Koempro",
		"link": "https://koempro.solusi.vip/home",
		"period": "",
		"type": "Full Stack"
	},
	{
		"id": 9,
		"name": "Yukita Android App",
		"link": "https://yukita.yukikula.com/",
		"period": "September 2022",
		"type": "Front End"
	},
	{
		"id": 10,
		"name": "INDOHP X KOINWORKS",
		"link": "https://yukita.yukikula.com/",
		"period": "November 2021",
		"type": "Front End"
	},
	{
		"id": 11,
		"name": "Web Glori Mitra Sukses",
		"link": "https://drive.google.com/file/d/1knbAn-FJLaVwbelcfuZ9Fj5F_TqiBJ86/view?usp=sharing",
		"period": "Maret 2022",
		"type": "UI UX Designer"
	},
	{
		"id": 12,
		"name": "Company Profile Glori Mitra Sukses",
		"link": "https://drive.google.com/file/d/1gE81kkcT7mns1sb3xoudJT8u7rL4Lrqh/view?usp=sharing",
		"period": "Maret 2022",
		"type": "UI UX Designer"
	},
	{
		"id": 13,
		"name": "Rayo The King of Fragnance",
		"link": "https://drive.google.com/file/d/1mKd3ESANL3ps1ZhpO8wzbw85woFfrt2X/view?usp=sharing",
		"period": "Maret 2022",
		"type": "UI UX Designer"
	}
]
