[
	{
		"id": 1,
		"name": "Back End Developer",
		"details": [
			{
				"id": 1,
				"name": "Laravel"
			},
			{
				"id": 2,
				"name": "Node JS Express"
			},
			{
				"id": 3,
				"name": "Firebase"
			},
			{
				"id": 4,
				"name": "MYSQL"
			}
		]
	},
	{
		"id": 2,
		"name": "Front End Developer",
		"details": [
			{
				"id": 1,
				"name": "React JS"
			},
			{
				"id": 2,
				"name": "Vue JS"
			},
			{
				"id": 3,
				"name": "Next JS"
			},
			{
				"id": 4,
				"name": "Tailwind CSS"
			},
			{
				"id": 5,
				"name": "React Redux / Redux"
			},
			{
				"id": 6,
				"name": "SASS"
			},
			{
				"id": 7,
				"name": "JSON"
			}
		]
	},
	{
		"id": 3,
		"name": "Android Developer",
		"details": [
			{
				"id": 1,
				"name": "React Native"
			}
		]
	},
	{
		"id": 4,
		"name": "UI UX Designer",
		"details": [
			{
				"id": 1,
				"name": "Figma"
			},
			{
				"id": 2,
				"name": "Adobe Photoshop"
			},
			{
				"id": 3,
				"name": "Adobe Illustrator"
			}
		]
	}
]
